{  
   "swagger":"2.0",
   "info":{  
      "description":"This is a sample for getting appointments for given date",
      "version":"1.0.0",
      "title":"Tata Digital Health Web services",
      "contact":{  
         "email":"rajshekar.sv@tata-dhp.com"
      }
   },
   "host":"test.tatahealth.com:8080",
   "tags":[  
      {  
         "name":"HttpClientAppointmentsService",
         "description":"About Appointment module",
         "externalDocs":{  
            "description":"Find out more",
            "url":"https://www.tatahealth.com/"
         }
      }
   ],
   "schemes":[  
      "http"
   ],
   "paths":{  
      "/HPPClinicsAppointmentsRestApp/rest/clinicAppointments/appointmentHomeDoctor":{  
         "post":{  
            "tags":[  
               "HttpClientAppointmentsService"
            ],
            "summary":"To Get a Doctors appointment for an given date",
            "description":"",
            "operationId":"appointmentHomeDoctor",
            "consumes":[  
               "application/json"
            ],
            "produces":[  
               "*"
            ],
            "parameters":[  
               {  
                  "in":"body",
                  "name":"body",
                  "description":"Details required to get appointments",
                  "required":true,
                  "schema":{  
                     "$ref":"#/definitions/appointmentHomeDoctor"
                  }
               }
            ],
            "responses":{  
               "405":{  
                  "description":"Invalid input"
               },
               "500":{  
                  "description":"Internal Server Error"
               },
               "200":{  
                  "description":"successful operation",
                  "schema":{  
                     "$ref":"#/definitions/ApiResponse"
                  }
               }
            }
         }
      },
      "/HPPClinicsAppointmentsRestApp/rest/clinicAppointments/countryList":{  
         "post":{  
            "tags":[  
               "HttpClientAppointmentsService"
            ],
            "summary":"To Get countries list",
            "description":"",
            "operationId":"getCountry",
            "consumes":[  
               "application/json"
            ],
            "produces":[  
               "*"
            ],
            "parameters":[  
               {  
                  "in":"body",
                  "name":"body",
                  "description":"Details required to get appointments",
                  "required":true,
                  "schema":{  
                     "$ref":"#/definitions/getCountry"
                  }
               }
            ],
            "responses":{  
               "405":{  
                  "description":"Invalid input"
               },
               "500":{  
                  "description":"Internal Server Error"
               }
            }
         }
      },
      "/HPPClinicsAppointmentsRestApp/rest/clinicAppointments/stateMasterList":{  
         "post":{  
            "tags":[  
               "HttpClientAppointmentsService"
            ],
            "summary":"To Get state list",
            "description":"",
            "operationId":"stateMasterList",
            "consumes":[  
               "application/json"
            ],
            "produces":[  
               "*"
            ],
            "parameters":[  
               {  
                  "in":"body",
                  "name":"body",
                  "description":"Details required to get appointments",
                  "required":true,
                  "schema":{  
                     "$ref":"#/definitions/stateMasterList"
                  }
               }
            ],
            "responses":{  
               "405":{  
                  "description":"Invalid input"
               },
               "500":{  
                  "description":"Internal Server Error"
               }
            }
         }
      },

      "/HPPClinicsAppointmentsRestApp/rest/clinicAppointments/cityMasterList":{  
         "post":{  
            "tags":[  
               "HttpClientAppointmentsService"
            ],
            "summary":"To Get city list",
            "description":"",
            "operationId":"cityMasterList",
            "consumes":[  
               "application/json"
            ],
            "produces":[  
               "*"
            ],
            "parameters":[  
               {  
                  "in":"body",
                  "name":"body",
                  "description":"Details required to get appointments",
                  "required":true,
                  "schema":{  
                     "$ref":"#/definitions/cityMasterList"
                  }
               }
            ],
            "responses":{  
               "405":{  
                  "description":"Invalid input"
               },
               "500":{  
                  "description":"Internal Server Error"
               }
            }
         }
      },

      "/HPPClinicsAppointmentsRestApp/rest/clinicAppointments/patientSearch":{  
         "post":{  
            "tags":[  
               "HttpClientAppointmentsService"
            ],
            "summary":"To search patient",
            "description":"",
            "operationId":"patientSearch",
            "consumes":[  
               "application/json"
            ],
            "produces":[  
               "*"
            ],
            "parameters":[  
               {  
                  "in":"body",
                  "name":"body",
                  "description":"Details required to get appointments",
                  "required":true,
                  "schema":{  
                     "$ref":"#/definitions/patientSearch"
                  }
               }
            ],
            "responses":{  
               "405":{  
                  "description":"Invalid input"
               },
               "500":{  
                  "description":"Internal Server Error"
               }
            }
         }
      },
      "/HPPClinicsAppointmentsRestApp/rest/clinicAppointments/bookAppointment":{  
         "post":{  
            "tags":[  
               "HttpClientAppointmentsService"
            ],
            "summary":"To book apppointment",
            "description":"",
            "operationId":"bookAppointment",
            "consumes":[  
               "application/json"
            ],
            "produces":[  
               "*"
            ],
            "parameters":[  
               {  
                  "in":"body",
                  "name":"body",
                  "description":"Details required to get appointments",
                  "required":true,
                  "schema":{  
                     "$ref":"#/definitions/bookAppointment"
                  }
               }
            ],
            "responses":{  
               "405":{  
                  "description":"Invalid input"
               },
               "500":{  
                  "description":"Internal Server Error"
               }
            }
         }
      },
      "/HPPClinicsAppointmentsRestApp/rest/clinicAppointments/appointmentHomeDoctorList":{  
         "post":{  
            "tags":[  
               "HttpClientAppointmentsService"
            ],
            "summary":"Apppointment Home Doctor List",
            "description":"",
            "operationId":"appointmentHomeDoctorList",
            "consumes":[  
               "application/json"
            ],
            "produces":[  
               "*"
            ],
            "parameters":[  
               {  
                  "in":"body",
                  "name":"body",
                  "description":"Details required to get appointments",
                  "required":true,
                  "schema":{  
                     "$ref":"#/definitions/appointmentHomeDoctorList"
                  }
               }
            ],
            "responses":{  
               "405":{  
                  "description":"Invalid input"
               },
               "500":{  
                  "description":"Internal Server Error"
               }
            }
         }
      },
      "/HPPClinicsAppointmentsRestApp/rest/clinicAppointments/appointmentHomeDoctorSlotDatesList":{  
         "post":{  
            "tags":[  
               "HttpClientAppointmentsService"
            ],
            "summary":"Apppointment Home Doctor Slot Dates List",
            "description":"",
            "operationId":"appointmentHomeDoctorSlotDatesList",
            "consumes":[  
               "application/json"
            ],
            "produces":[  
               "*"
            ],
            "parameters":[  
               {  
                  "in":"body",
                  "name":"body",
                  "description":"Details required to get appointments",
                  "required":true,
                  "schema":{  
                     "$ref":"#/definitions/appointmentHomeDoctorSlotDatesList"
                  }
               }
            ],
            "responses":{  
               "405":{  
                  "description":"Invalid input"
               },
               "500":{  
                  "description":"Internal Server Error"
               }
            }
         }
      },
      "/HPPClinicsAppointmentsRestApp/rest/clinicAppointments/reasonMaster":{  
         "post":{  
            "tags":[  
               "HttpClientAppointmentsService"
            ],
            "summary":"Reason Master",
            "description":"",
            "operationId":"reasonMaster",
            "consumes":[  
               "application/json"
            ],
            "produces":[  
               "*"
            ],
            "parameters":[  
               {  
                  "in":"body",
                  "name":"body",
                  "description":"Details required to get appointments",
                  "required":true,
                  "schema":{  
                     "$ref":"#/definitions/reasonMaster"
                  }
               }
            ],
            "responses":{  
               "405":{  
                  "description":"Invalid input"
               },
               "500":{  
                  "description":"Internal Server Error"
               }
            }
         }
      },
      "/HPPClinicsAppointmentsRestApp/rest/clinicAppointments/cancelAppointmentByParamedic":{  
         "post":{  
            "tags":[  
               "HttpClientAppointmentsService"
            ],
            "summary":"To Cancel Appointment By Paramedic",
            "description":"",
            "operationId":"cancelAppointmentByParamedic",
            "consumes":[  
               "application/json"
            ],
            "produces":[  
               "*"
            ],
            "parameters":[  
               {  
                  "in":"body",
                  "name":"body",
                  "description":"Details required to get appointments",
                  "required":true,
                  "schema":{  
                     "$ref":"#/definitions/cancelAppointmentByParamedic"
                  }
               }
            ],
            "responses":{  
               "405":{  
                  "description":"Invalid input"
               },
               "500":{  
                  "description":"Internal Server Error"
               }
            }
         }
      },
      "/HPPClinicsAppointmentsRestApp/rest/clinicAppointments/rescheduleAppointment":{  
         "post":{  
            "tags":[  
               "HttpClientAppointmentsService"
            ],
            "summary":"To Reschedule Appointment",
            "description":"",
            "operationId":"rescheduleAppointment",
            "consumes":[  
               "application/json"
            ],
            "produces":[  
               "*"
            ],
            "parameters":[  
               {  
                  "in":"body",
                  "name":"body",
                  "description":"Details required to get appointments",
                  "required":true,
                  "schema":{  
                     "$ref":"#/definitions/rescheduleAppointment"
                  }
               }
            ],
            "responses":{  
               "405":{  
                  "description":"Invalid input"
               },
               "500":{  
                  "description":"Internal Server Error"
               }
            }
         }
      },
      "/HPPClinicsAppointmentsRestApp/rest/clinicAppointments/blockAppointmentSlot":{  
         "post":{  
            "tags":[  
               "HttpClientAppointmentsService"
            ],
            "summary":"To Block Appointment Slot",
            "description":"",
            "operationId":"blockAppointmentSlot",
            "consumes":[  
               "application/json"
            ],
            "produces":[  
               "*"
            ],
            "parameters":[  
               {  
                  "in":"body",
                  "name":"body",
                  "description":"Details required to get appointments",
                  "required":true,
                  "schema":{  
                     "$ref":"#/definitions/blockAppointmentSlot"
                  }
               }
            ],
            "responses":{  
               "405":{  
                  "description":"Invalid input"
               },
               "500":{  
                  "description":"Internal Server Error"
               }
            }
         }
      },
       "/HPPClinicsAppointmentsRestApp/rest/clinicAppointments/unblockAppointmentSlot":{  
         "post":{  
            "tags":[  
               "HttpClientAppointmentsService"
            ],
            "summary":"To Unblock Appointment Slot",
            "description":"",
            "operationId":"unblockAppointmentSlot",
            "consumes":[  
               "application/json"
            ],
            "produces":[  
               "*"
            ],
            "parameters":[  
               {  
                  "in":"body",
                  "name":"body",
                  "description":"Details required to get appointments",
                  "required":true,
                  "schema":{  
                     "$ref":"#/definitions/blockAppointmentSlot"
                  }
               }
            ],
            "responses":{  
               "405":{  
                  "description":"Invalid input"
               },
               "500":{  
                  "description":"Internal Server Error"
               }
            }
         }
      },
      "/HPPClinicsAppointmentsRestApp/rest/clinicAppointments/blockAppointmentCalender":{  
         "post":{  
            "tags":[  
               "HttpClientAppointmentsService"
            ],
            "summary":"To block Appointment Calender",
            "description":"",
            "operationId":"blockAppointmentCalender",
            "consumes":[  
               "application/json"
            ],
            "produces":[  
               "*"
            ],
            "parameters":[  
               {  
                  "in":"body",
                  "name":"body",
                  "description":"Details required to get appointments",
                  "required":true,
                  "schema":{  
                     "$ref":"#/definitions/blockAppointmentCalender"
                  }
               }
            ],
            "responses":{  
               "405":{  
                  "description":"Invalid input"
               },
               "500":{  
                  "description":"Internal Server Error"
               }
            }
         }
      },
      "/HPPClinicsAppointmentsRestApp/rest/clinicAppointments/patientRegistrationAlternateFlow":{  
         "post":{  
            "tags":[  
               "HttpClientAppointmentsService"
            ],
            "summary":"Patient Registration Alternate Flow",
            "description":"",
            "operationId":"patientRegistrationAlternateFlow",
            "consumes":[  
               "application/json"
            ],
            "produces":[  
               "*"
            ],
            "parameters":[  
               {  
                  "in":"body",
                  "name":"body",
                  "description":"Details required to get appointments",
                  "required":true,
                  "schema":{  
                     "$ref":"#/definitions/patientRegistrationAlternateFlow"
                  }
               }
            ],
            "responses":{  
               "405":{  
                  "description":"Invalid input"
               },
               "500":{  
                  "description":"Internal Server Error"
               }
            }
         }
      },

      "/HPPClinicsAppointmentsRestApp/rest/clinicAppointments/patientRegistrationAlternateFlowVC":{  
         "post":{  
            "tags":[  
               "HttpClientAppointmentsService"
            ],
            "summary":"Patient Registration Alternate Flow VC",
            "description":"",
            "operationId":"patientRegistrationAlternateFlowVC",
            "consumes":[  
               "application/json"
            ],
            "produces":[  
               "*"
            ],
            "parameters":[  
               {  
                  "in":"body",
                  "name":"body",
                  "description":"Details required to get appointments",
                  "required":true,
                  "schema":{  
                     "$ref":"#/definitions/patientRegistrationAlternateFlow"
                  }
               }
            ],
            "responses":{  
               "405":{  
                  "description":"Invalid input"
               },
               "500":{  
                  "description":"Internal Server Error"
               }
            }
         }
      },

      "/HPPClinicsAppointmentsRestApp/rest/clinicAppointments/patientPreviousVisits":{  
         "post":{  
            "tags":[  
               "HttpClientAppointmentsService"
            ],
            "summary":"Patient Previous Visits",
            "description":"",
            "operationId":"patientPreviousVisits",
            "consumes":[  
               "application/json"
            ],
            "produces":[  
               "*"
            ],
            "parameters":[  
               {  
                  "in":"body",
                  "name":"body",
                  "description":"Details required to get appointments",
                  "required":true,
                  "schema":{  
                     "$ref":"#/definitions/patientPreviousVisits"
                  }
               }
            ],
            "responses":{  
               "405":{  
                  "description":"Invalid input"
               },
               "500":{  
                  "description":"Internal Server Error"
               }
            }
         }
      },

       "/HPPClinicsAppointmentsRestApp/rest/clinicAppointments/patientRegistration":{  
         "post":{  
            "tags":[  
               "HttpClientAppointmentsService"
            ],
            "summary":"Patient Registration",
            "description":"",
            "operationId":"patientRegistration",
            "consumes":[  
               "application/json"
            ],
            "produces":[  
               "*"
            ],
            "parameters":[  
               {  
                  "in":"body",
                  "name":"body",
                  "description":"Details required to get appointments",
                  "required":true,
                  "schema":{  
                     "$ref":"#/definitions/patientRegistration"
                  }
               }
            ],
            "responses":{  
               "405":{  
                  "description":"Invalid input"
               },
               "500":{  
                  "description":"Internal Server Error"
               }
            }
         }
      },
       "/HPPClinicsAppointmentsRestApp/rest/clinicAppointments/updatePatientDetails":{  
         "post":{  
            "tags":[  
               "HttpClientAppointmentsService"
            ],
            "summary":"Update Patient Details",
            "description":"",
            "operationId":"updatePatientDetails",
            "consumes":[  
               "application/json"
            ],
            "produces":[  
               "*"
            ],
            "parameters":[  
               {  
                  "in":"body",
                  "name":"body",
                  "description":"Details required to get appointments",
                  "required":true,
                  "schema":{  
                     "$ref":"#/definitions/updatePatientDetails"
                  }
               }
            ],
            "responses":{  
               "405":{  
                  "description":"Invalid input"
               },
               "500":{  
                  "description":"Internal Server Error"
               }
            }
         }
      },
      "/HPPClinicsAppointmentsRestApp/rest/clinicAppointments/getMedicalHistory":{  
         "post":{  
            "tags":[  
               "HttpClientAppointmentsService"
            ],
            "summary":"To Get Medical History of Patient",
            "description":"",
            "operationId":"getMedicalHistory",
            "consumes":[  
               "application/json"
            ],
            "produces":[  
               "*"
            ],
            "parameters":[  
               {  
                  "in":"body",
                  "name":"body",
                  "description":"Details required to get appointments",
                  "required":true,
                  "schema":{  
                     "$ref":"#/definitions/patientPreviousVisits"
                  }
               }
            ],
            "responses":{  
               "405":{  
                  "description":"Invalid input"
               },
               "500":{  
                  "description":"Internal Server Error"
               }
            }
         }
      },
       "/HPPClinicsAppointmentsRestApp/rest/clinicAppointments/patientSearchGetAllPatient":{  
         "post":{  
            "tags":[  
               "HttpClientAppointmentsService"
            ],
            "summary":"Patient search to get all patients",
            "description":"",
            "operationId":"patientSearchGetAllPatient",
            "consumes":[  
               "application/json"
            ],
            "produces":[  
               "*"
            ],
            "parameters":[  
               {  
                  "in":"body",
                  "name":"body",
                  "description":"Details required to get appointments",
                  "required":true,
                  "schema":{  
                     "$ref":"#/definitions/patientSearchGetAllPatient"
                  }
               }
            ],
            "responses":{  
               "405":{  
                  "description":"Invalid input"
               },
               "500":{  
                  "description":"Internal Server Error"
               }
            }
         }
      }
      
   },
   "definitions":{
      "appointmentHomeDoctor":{  
         "type":"object",
         "required":[  
            "token",
           "userLoginName",
           "userId",
           "organisationId",
           "clinicUserId",
           "appointmentDate"
            
         ],
         "properties":{  
            "token":{  
               "type":"string"
            },
            "userLoginName":{
               "type":"string"
            },
            "userId":{  
               "type":"string"
            },
            "organisationId":{  
               "type":"string"
            },
            "clinicUserId":{  
               "type":"string"
            },
            "appointmentDate":{  
               "type":"string"
            }
         }
      },

      "getCountry":{  
         "type":"object",
         "required":[  
            "token",
            "userLoginName",
            "userId",
            "organisationId"
            
         ],
         "properties":{  
            "token":{  
               "type":"string"
            },
            "userLoginName":{
               "type":"string"
            },
            "userId":{  
               "type":"string"
            },
            "organisationId":{  
               "type":"string"
            }
         }
      },
      "ApiResponse":{  
         "type":"object",
		 "required":[  
            "allApointmentsCount",
            "checkedInCount",
            "doneCount",
            "scheduledCount",
			"siteId",
			"locationId",
			"appointmentDate",
			"bookedslots"
            
         ],
         "properties":{  
            "allApointmentsCount":{  
               "type":"string"
            },
            "checkedInCount":{  
               "type":"string"
            },
            "doneCount":{  
               "type":"string"
            },
            "scheduledCount":{  
               "type":"string"
            },
            "siteId":{  
               "type":"string"
            },
            "locationId":{  
               "type":"string"
            },
            "appointmentDate":{  
               "type":"string"
            },
            "bookedslots":{  
               "type":"object",
               "properties" : {
                  "bookedslot" : {
                     "type" : "array",
                     "items":{  
                        "$ref":"#/definitions/Slot"
                     }
                  }
               }
            }
         }
      },
      "Slot":{
         "type" : "object",
		 "required":[  
            "dateSlotId",
            "startTime",
            "endTime",
            "slotId",
			"slotInterval",
			"normalBookSize",
			"overBookSize",
			"bookedSlotStatus",
			"patientList"
            
         ],
         "properties" : {
            "dateSlotId": {  
               "type":"string"
            },
           "startTime": {  
               "type":"string"
            },
           "endTime": {  
               "type":"string"
            },
           "slotId": {  
               "type":"string"
            },
           "slotInterval": {  
               "type":"string"
            },
           "normalBookSize": {  
               "type":"string"
            },
           "overBookSize": {  
               "type":"string"
            },
           "bookedSlotStatus": {  
               "type":"string"
            },
           "patientList": {
             "type":"object",
             "patient": {
                  "type" : "array",
                  "items":{  
                     "$ref":"#/definitions/Patient"
                  }
               }
           }
         }
      },
	  "patient1":{
         "type":"object",
         "properties" :{
            "patientId": {  
               "type":"string"
            },
            "appointmentId": {  
               "type":"string"
            },
            "age": {  
               "type":"string"
            },
            "gender": {  
               "type":"string"
            },
            "mobileNo": {  
               "type":"string"
            },
            "patientName": {  
               "type":"string"
            },
            "reasonforVisit": {  
               "type":"string"
            },
            "patientVisitId": {  
               "type":"string"
            },
            "status": {  
               "type":"string"
            },
            "uhid": {  
               "type":"string"
            },
            "patientPhoto": {  
               "type":"string"
            },
            "emailId": {  
               "type":"string"
            },
            "title": {  
               "type":"string"
            },
            "appointmentType": {  
               "type":"string"
            },
            "waitingRoomURL": {  
               "type":"string"
            },
            "logId": {  
               "type":"string"
            }
         }
      },

      "stateMasterList":{  
         "type":"object",
         "required":[  
            "token",
            "userLoginName",
            "userId",
            "organisationId",
            "countryId"   
         ],
         "properties":{  
            "token":{  
               "type":"string"
            },
            "userLoginName":{
               "type":"string"
            },
            "userId":{  
               "type":"string"
            },
            "organisationId":{  
               "type":"string"
            },
            "countryId":{  
               "type":"string"
            }
         }
      },

      "cityMasterList":{  
         "type":"object",
         "required":[  
            "token",
            "userLoginName",
            "userId",
            "organisationId",
            "stateId"    
         ],
         "properties":{  
            "token":{  
               "type":"string"
            },
            "userLoginName":{
               "type":"string"
            },
            "userId":{  
               "type":"string"
            },
            "organisationId":{  
               "type":"string"
            },
            "stateId":{  
               "type":"string"
            }
         }
      },

      "patientSearch":{  
         "type":"object",
         "required":[  
            "token",
              "userLoginName",
              "userId",
              "organisationId",
              "startIndex",
              "interval",
              "patient",
              "hmFlag",
              "clinicUserId"    
         ],
         "properties":{  
            "token":{  
               "type":"string"
            },
            "userLoginName":{
               "type":"string"
            },
            "userId":{  
               "type":"string"
            },
            "organisationId":{  
               "type":"string"
            },
            "startIndex":{  
               "type":"string"
            },
            "interval":{
               "type":"string"
            },
            "patient":{  
               "type":"object",
               "$ref":"#/definitions/Patients"
            },
            "hmFlag":{  
               "type":"string"
            },
            "clinicUserId":{  
               "type":"string"
            }
         }
      },

      "Patients":{  
         "type":"object",
         "required":[  
            "uhid",
             "patientName",
             "gender",
             "dob",
             "mobileNo",
             "visit_date_from",
             "visit_date_to"   
         ],
         "properties":{  
            "uhid":{  
               "type":"string"
            },
            "patientName":{
               "type":"string"
            },
            "gender":{  
               "type":"string"
            },
            "dob":{  
               "type":"string"
            },
            "mobileNo":{  
               "type":"string"
            },
            "visit_date_from":{
               "type":"string"
            },
            "visit_date_to":{  
               "type":"string"
            }
         }
      },

      "bookAppointment":{  
         "type":"object",
         "required":[  
            "token",
           "userLoginName",
           "userId",
           "organisationId",
           "appointment"   
         ],
         "properties":{  
            "token":{  
               "type":"string"
            },
            "userLoginName":{
               "type":"string"
            },
            "userId":{  
               "type":"string"
            },
            "organisationId":{  
               "type":"string"
            },
            "appointment":{  
                "type":"object",
               "$ref":"#/definitions/Appointment"
            }
         }
      },

      "Appointment":{  
         "type":"object",
         "required":[  
            "patientId",
             "dateSlotId",
             "slotId",
             "appointmentDate",
             "startTime",
             "endTime",
             "locationId",
             "siteId",
             "clinicUserId",
             "reasonOfVisit",
             "locationName",
             "organizationName",
             "doctorName"   
         ],
         "properties":{  
            "patientId":{  
               "type":"string"
            },
            "dateSlotId":{
               "type":"string"
            },
            "slotId":{  
               "type":"string"
            },
            "appointmentDate":{  
               "type":"string"
            },
            "startTime":{  
               "type":"string"
            },
            "endTime":{
               "type":"string"
            },
            "locationId":{  
               "type":"string"
            },
            "siteId":{
               "type":"string"
            },
            "clinicUserId":{  
               "type":"string"
            },
            "reasonOfVisit":{  
               "type":"string"
            },
            "locationName":{  
               "type":"string"
            },
            "organizationName":{
               "type":"string"
            },
            "doctorName":{  
               "type":"string"
            }
         }
      },
      "appointmentHomeDoctorList":{  
         "type":"object",
         "required":[  
            "token",
           "userLoginName",
           "userId",
           "organisationId" 
         ],
         "properties":{  
            "token":{  
               "type":"string"
            },
            "userLoginName":{
               "type":"string"
            },
            "userId":{  
               "type":"string"
            },
            "organisationId":{  
               "type":"string"
            }
         }
      },
      "appointmentHomeDoctorSlotDatesList":{  
         "type":"object",
         "required":[  
            "token",
           "userLoginName",
           "userId",
           "organisationId",
           "clinicUserId"
         ],
         "properties":{  
            "token":{  
               "type":"string"
            },
            "userLoginName":{
               "type":"string"
            },
            "userId":{  
               "type":"string"
            },
            "organisationId":{  
               "type":"string"
            },
            "clinicUserId":{  
               "type":"string"
            }
         }
      },
      "reasonMaster":{  
         "type":"object",
         "required":[  
           "token",
           "userId",
           "organizationId",
           "userLoginName",
           "reasonType"
         ],
         "properties":{  
            "token":{  
               "type":"string"
            },
            "userId":{
               "type":"string"
            },
            "organizationId":{  
               "type":"string"
            },
            "userLoginName":{  
               "type":"string"
            },
            "reasonType":{  
               "type":"string"
            }
         }
      },
      "cancelAppointmentByParamedic":{  
         "type":"object",
         "required":[  
          "token",
           "userId",
           "organizationId",
           "userLoginName",
           "appointment"
         ],
         "properties":{  
            "token":{  
               "type":"string"
            },
            "userId":{
               "type":"string"
            },
            "organizationId":{  
               "type":"string"
            },
            "userLoginName":{  
               "type":"string"
            },
            "appointment":{  
                "type":"object",
               "$ref":"#/definitions/Appointments"
            }
         }
      },
      "Appointments":{  
         "type":"object",
         "required":[  
          "siteId",
          "locationId",
          "patientId",
          "appointmentId",
          "appointmentDate",
          "startTime",
          "endTime",
          "doctorId",
          "roleId",
          "reasonforCancel",
          "patientName"
         ],
         "properties":{  
            "siteId":{  
               "type":"string"
            },
            "locationId":{
               "type":"string"
            },
            "patientId":{  
               "type":"string"
            },
            "appointmentId":{  
               "type":"string"
            },
            "appointmentDate":{  
               "type":"string"
            },
             "startTime":{  
               "type":"string"
            },
            "endTime":{
               "type":"string"
            },
            "doctorId":{  
               "type":"string"
            },
            "roleId":{  
               "type":"string"
            },
            "reasonforCancel":{  
               "type":"string"
            },
            "patientName":{  
               "type":"string"
            }
         }
      },

      "rescheduleAppointment":{  
         "type":"object",
         "required":[  
          "token",
           "userLoginName",
           "userId",
           "organisationId",
           "siteId",
           "locationId",
           "patientId",
           "cancelAppointment",
           "bookAppointment"
         ],
         "properties":{  
            "token":{  
               "type":"string"
            },
            "userLoginName":{
               "type":"string"
            },
            "userId":{  
               "type":"string"
            },
            "organisationId":{  
               "type":"string"
            },
            "siteId":{  
               "type":"string"
            },
             "locationId":{  
               "type":"string"
            },
            "patientId":{
               "type":"string"
            },
            "cancelAppointment":{  
                "type":"object",
               "$ref":"#/definitions/CancelAppointment"
            },
            "bookAppointment":{  
                "type":"object",
               "$ref":"#/definitions/BookAppointment"
            }
         }
      },
      "CancelAppointment":{  
         "type":"object",
         "required":[  
          "appointmentId",
          "startTime",
          "endTime",
          "reasonforCancel"
         ],
         "properties":{  
            "appointmentId":{  
               "type":"string"
            },
            "startTime":{
               "type":"string"
            },
            "endTime":{  
               "type":"string"
            },
            "reasonforCancel":{  
               "type":"string"
            }
         }
      },
      "BookAppointment":{  
         "type":"object",
         "required":[  
          "dateSlotId",
          "slotId",
          "appointmentDate",
          "startTime",
          "endTime",
          "clinicUserId",
          "reasonOfVisit",
          "locationName",
          "organizationName",
          "doctorName"
         ],
         "properties":{  
            "dateSlotId":{  
               "type":"string"
            },
            "slotId":{
               "type":"string"
            },
            "appointmentDate":{  
               "type":"string"
            },
            "startTime":{  
               "type":"string"
            },
            "endTime":{  
               "type":"string"
            },
            "clinicUserId":{
               "type":"string"
            },
            "reasonOfVisit":{  
               "type":"string"
            },
            "locationName":{  
               "type":"string"
            },
            "organizationName":{  
               "type":"string"
            },
            "doctorName":{  
               "type":"string"
            }
         }
      },
      "blockAppointmentSlot":{  
         "type":"object",
         "required":[  
          "token",
           "organisationId",
           "userLoginName",
           "blockAppointmentSlot"
         ],
         "properties":{  
            "token":{  
               "type":"string"
            },
            "organisationId":{
               "type":"string"
            },
            "userLoginName":{  
               "type":"string"
            },
            "blockAppointmentSlot":{  
                "type":"object",
               "$ref":"#/definitions/BlockAppointmentSlot"
            }
         }
      },
      "BlockAppointmentSlot":{  
         "type":"object",
         "required":[  
          "userId",
          "fromDate",
          "toDate",
          "fromTime",
          "toTime",
          "clinicUserId",
          "reason",
          "slotId",
          "siteId",
          "locationId"
         ],
         "properties":{  
            "userId":{  
               "type":"string"
            },
            "fromDate":{
               "type":"string"
            },
            "toDate":{  
               "type":"string"
            },
            "fromTime":{  
               "type":"string"
            },
            "toTime":{  
               "type":"string"
            },
            "clinicUserId":{
               "type":"string"
            },
            "reason":{  
               "type":"string"
            },
            "slotId":{  
               "type":"string"
            },
            "siteId":{  
               "type":"string"
            },
            "locationId":{  
               "type":"string"
            }
         }
      },
      "blockAppointmentCalender":{  
         "type":"object",
         "required":[
         "token",
         "organisationId", 
         "userLoginName", 
          "userId",
          "fromDate",
          "toDate",
          "fromTime",
          "toTime",
          "clinicUserId",
          "reason",
          "siteId",
          "locationId"
         ],
         "properties":{ 
            "token":{  
               "type":"string"
            },
            "organisationId":{
               "type":"string"
            },
            "userLoginName":{  
               "type":"string"
            },
            "userId":{  
               "type":"string"
            },
            "fromDate":{
               "type":"string"
            },
            "toDate":{  
               "type":"string"
            },
            "fromTime":{  
               "type":"string"
            },
            "toTime":{  
               "type":"string"
            },
            "clinicUserId":{
               "type":"string"
            },
            "reason":{  
               "type":"string"
            },
            "siteId":{  
               "type":"string"
            },
            "locationId":{  
               "type":"string"
            }
         }
      },
      "patientRegistrationAlternateFlow":{  
         "type":"object",
         "required":[
           "token",
           "organisationId",
           "userId",
           "userLoginName",
           "siteId",
           "locationId",
           "isDuplicateCheckRequired",
           "isPatientMappingRequired",
           "patient",
           "isVirtualClinicRequest"
         ],
         "properties":{ 
            "token":{  
               "type":"string"
            },
            "organisationId":{
               "type":"string"
            },
            "userId":{  
               "type":"string"
            },
            "userLoginName":{  
               "type":"string"
            },
            "siteId":{
               "type":"string"
            },
            "locationId":{  
               "type":"string"
            },
            "isDuplicateCheckRequired":{  
               "type":"string"
            },
            "isPatientMappingRequired":{  
               "type":"string"
            },
            "patient":{
               "type":"object",
               "$ref":"#/definitions/PatientRegistration"
            },
            "isVirtualClinicRequest":{  
               "type":"string"
            }
         }
      },
      "PatientRegistration":{  
         "type":"object",
         "required":[
           "patientId",
          "title",
          "patientName",
          "gender",
          "bloodGroup",
          "patientDOB",
          "age",
          "mobileNo",
          "emailId",
          "addressLine1",
          "addressLine2",
          "country",
          "state",
          "city",
          "zipCode",
          "patientPhoto",
          "birthDayWish",
          "homeMonitoring",
          "medicalHistoryFlag",
          "medicalHistory",
          "patientAllergy",
          "lastName",
          "alternate_number",
          "casualty",
          "religion",
          "employment",
          "mlc",
          "mlc_number",
          "mlc_description",
          "government_id_type",
          "government_id_number",
          "martial_status",
          "clinic_id",
          "countrycode_mobileNo",
          "countrycode_alternateNo",
          "patient_password",
          "patientLoginName"

         ],
         "properties":{ 
            "patientId":{  
               "type":"string"
            },
            "title":{
               "type":"string"
            },
            "patientName":{  
               "type":"string"
            },
            "gender":{  
               "type":"string"
            },
            "bloodGroup":{
               "type":"string"
            },
            "patientDOB":{  
               "type":"string"
            },
            "age":{  
               "type":"string"
            },
            "mobileNo":{  
               "type":"string"
            },
            "emailId":{  
               "type":"string"
            },
            "addressLine1":{
               "type":"string"
            },
            "addressLine2":{  
               "type":"string"
            },
            "country":{  
               "type":"string"
            },
            "state":{  
               "type":"string"
            },
            "city":{
               "type":"string"
            },
            "zipCode":{  
               "type":"string"
            },
            "patientPhoto":{  
               "type":"string"
            },
            "birthDayWish":{  
               "type":"string"
            },
            "homeMonitoring":{  
               "type":"string"
            },
            "medicalHistoryFlag":{  
               "type":"string"
            },
            "medicalHistory":{
               "type":"object",
               "$ref":"#/definitions/medicalHistory"
            },
            "patientAllergy":{
               "type":"object",
               "$ref":"#/definitions/patientAllergy"
            },
            "lastName":{  
               "type":"string"
            },
            "alternate_number":{
               "type":"string"
            },
            "casualty":{  
               "type":"string"
            },
            "religion":{  
               "type":"string"
            },
            "employment":{
               "type":"string"
            },
            "mlc":{  
               "type":"string"
            },
            "mlc_number":{  
               "type":"string"
            },
            "mlc_description":{  
               "type":"string"
            },
            "government_id_type":{  
               "type":"string"
            },
            "government_id_number":{
               "type":"string"
            },
            "martial_status":{  
               "type":"string"
            },
            "clinic_id":{  
               "type":"string"
            },
            "countrycode_mobileNo":{  
               "type":"string"
            },
            "countrycode_alternateNo":{
               "type":"string"
            },
            "patient_password":{  
               "type":"string"
            },
            "patientLoginName":{  
               "type":"string"
            }
            
         }
      },
      "medicalHistory":{  
         "type":"object",
         "required":[
           "immunization",
            "bcg",
            "dpt",
            "tetnus",
            "immOtherDesc",
            "familyMedicalHistory",
            "patientMedicalHistory",
            "pneumonia",
            "hepatitis_a",
            "hepatitis_b",
            "typhoid",
            "influenza",
            "polio",
            "socialHabitsSmoking",
            "socialHabitsDrinking",
            "socialHabitsOthers",
            "patientMedicalConditionsDiabetes",
            "patientMedicalConditionsHypertension",
            "patientMedicalConditionsAsthma",
            "patientMedicalConditionsHeartDisease",
            "patientMedicalConditionsOthers",
            "familyMedicalConditionsDiabetes",
            "familyMedicalConditionsHypertension",
            "familyMedicalConditionsAsthma",
            "familyMedicalConditionsHeartDisease",
            "familyMedicalConditionsOthers",
            "notes",
            "currentMedication",
			"medicalHistoryId",
			"patientVisitId"
         ],
         "properties":{ 
            "immunization":{  
               "type":"string"
            },
            "bcg":{  
               "type":"string"
            },
            "dpt":{  
               "type":"string"
            },
            "tetnus":{  
               "type":"string"
            },
            "immOtherDesc":{  
               "type":"string"
            },
            "familyMedicalHistory":{  
               "type":"string"
            },
            "patientMedicalHistory":{  
               "type":"string"
            },
            "pneumonia":{  
               "type":"string"
            },
            "hepatitis_a":{  
               "type":"string"
            },
            "hepatitis_b":{  
               "type":"string"
            },
            "typhoid":{  
               "type":"string"
            },
            "influenza":{  
               "type":"string"
            },
            "polio":{  
               "type":"string"
            },
            "socialHabitsSmoking":{  
               "type":"string"
            },
            "socialHabitsDrinking":{  
               "type":"string"
            },
            "socialHabitsOthers":{  
               "type":"string"
            },
            "patientMedicalConditionsDiabetes":{  
               "type":"string"
            },
            "patientMedicalConditionsHypertension":{  
               "type":"string"
            },
            "patientMedicalConditionsAsthma":{  
               "type":"string"
            },
            "patientMedicalConditionsHeartDisease":{  
               "type":"string"
            },
            "patientMedicalConditionsOthers":{  
               "type":"string"
            },
            "familyMedicalConditionsDiabetes":{  
               "type":"string"
            },
            "familyMedicalConditionsHypertension":{  
               "type":"string"
            },
            "familyMedicalConditionsAsthma":{  
               "type":"string"
            },
            "familyMedicalConditionsHeartDisease":{  
               "type":"string"
            },
            "familyMedicalConditionsOthers":{  
               "type":"string"
            },
            "notes":{  
               "type":"string"
            },
            "currentMedication":{
               "type":"object",
               "$ref":"#/definitions/currentMedication"
            }
         }
      },
      "patientAllergy":{  
         "type":"object",
         "required":[
           "patientAllergyId",
            "allergyId",
            "allergyCimsCode",
            "allergyName",
            "operation"
         ],
         "properties":{ 
            "patientAllergyId":{  
               "type":"string"
            },
            "allergyId":{  
               "type":"string"
            },
            "allergyCimsCode":{  
               "type":"string"
            },
            "allergyName":{  
               "type":"string"
            },
            "operation":{  
               "type":"string"
            }
         }
      },
      "currentMedication":{  
         "type":"object",
         "required":[
          "medicine",
           "comments",
           "operation"
         ],
         "properties":{ 
            "medicine":{  
               "type":"string"
            },
            "comments":{  
               "type":"string"
            },
            "operation":{  
               "type":"string"
            }
         }
      },
      "patientPreviousVisits":{  
         "type":"object",
         "required":[  
          "token",
           "userLoginName",
           "userId",
           "organisationId",
           "patientId"
         ],
         "properties":{  
            "token":{  
               "type":"string"
            },
            "userLoginName":{
               "type":"string"
            },
            "userId":{  
               "type":"string"
            },
            "organisationId":{  
                 "type":"string"
            },
            "patientId":{  
                 "type":"string"
            }
         }
      },


      "patientRegistration":{  
         "type":"object",
         "required":[  
          "token",
           "userId",
           "userLoginName",
           "organisationId",
           "doctorId",
           "startTime",
           "endTime",
           "date",
           "dateSlotId",
           "bookedSlotId",
           "reasonForVisit",
           "locationId",
           "siteId",
           "locationName",
           "organizationName",
           "doctorName",
           "patient",
           "medicalHistoryFlag",
            "medicalHistory",
            "isDuplicateCheckRequired",
             "isPatientMappingRequired"
         ],
         "properties":{  
            "token":{  
               "type":"string"
            },
            "userId":{  
               "type":"string"
            },
           "userLoginName":{  
               "type":"string"
            },
           "organisationId":{  
               "type":"string"
            },
           "doctorId":{  
               "type":"string"
            },
           "startTime":{  
               "type":"string"
            },
           "endTime":{  
               "type":"string"
            },
           "date":{  
               "type":"string"
            },
           "dateSlotId":{  
               "type":"string"
            },
           "bookedSlotId":{  
               "type":"string"
            },
           "reasonForVisit":{  
               "type":"string"
            },
           "locationId":{  
               "type":"string"
            },
           "siteId":{  
               "type":"string"
            },
           "locationName":{  
               "type":"string"
            },
           "organizationName":{  
               "type":"string"
            },
           "doctorName":{  
               "type":"string"
            },
           "patient":{  
               "type":"object",
               "$ref":"#/definitions/patient"
            },
             "medicalHistoryFlag":{  
               "type":"string"
            },
            "medicalHistory":{  
               "type":"object",
               "$ref":"#/definitions/medicalHistory"
            },
            "isDuplicateCheckRequired":{  
               "type":"string"
            },
             "isPatientMappingRequired":{  
               "type":"string"
            }
         }
      },
      "patient":{  
         "type":"object",
         "required":[
           "patientId",
          "title",
          "patientName",
          "lastName",
          "gender",
          "bloodGroup",
          "patientDOB",
          "age",
          "cityId",
          "mobileNo",
          "emailId",
          "addressLine1",
          "addressLine2",
          "country",
          "state",
          "city",
          "zipCode",
          "patientPhoto",
          "birthDayWish",
          "homeMonitoring",
          "alternate_number",
          "casualty",
          "religion",
          "employment",
          "mlc",
          "mlc_number",
          "mlc_description",
          "government_id_type",
          "government_id_number",
          "martial_status",
          "clinic_id",
          "countrycode_mobileNo",
          "countrycode_alternateNo",
          "patientAllergy"

         ],
         "properties":{ 
            "patientId":{  
               "type":"string"
            },
          "title":{  
               "type":"string"
            },
          "patientName":{  
               "type":"string"
            },
          "lastName":{  
               "type":"string"
            },
          "gender":{  
               "type":"string"
            },
          "bloodGroup":{  
               "type":"string"
            },
          "patientDOB":{  
               "type":"string"
            },
          "age":{  
               "type":"string"
            },
          "cityId":{  
               "type":"string"
            },
          "mobileNo":{  
               "type":"string"
            },
          "emailId":{  
               "type":"string"
            },
          "addressLine1":{  
               "type":"string"
            },
          "addressLine2":{  
               "type":"string"
            },
          "country":{  
               "type":"string"
            },
          "state":{  
               "type":"string"
            },
          "city":{  
               "type":"string"
            },
          "zipCode":{  
               "type":"string"
            },
          "patientPhoto":{  
               "type":"string"
            },
          "birthDayWish":{  
               "type":"string"
            },
          "homeMonitoring":{  
               "type":"string"
            },
          "alternate_number":{  
               "type":"string"
            },
          "casualty":{  
               "type":"string"
            },
          "religion":{  
               "type":"string"
            },
          "employment":{  
               "type":"string"
            },
          "mlc":{  
               "type":"string"
            },
          "mlc_number":{  
               "type":"string"
            },
          "mlc_description":{  
               "type":"string"
            },
          "government_id_type":{  
               "type":"string"
            },
          "government_id_number":{  
               "type":"string"
            },
          "martial_status":{  
               "type":"string"
            },
          "clinic_id":{  
               "type":"string"
            },
          "countrycode_mobileNo":{  
               "type":"string"
            },
          "countrycode_alternateNo":{  
               "type":"string"
            },
          "patientAllergy":{
               "type":"object",
               "$ref":"#/definitions/patientAllergy"
            }
            
         }
      },
      "updatePatientDetails":{  
         "type":"object",
         "required":[  
             "token",
              "userId",
              "userLoginName",
              "organizationId",
              "siteId",
              "locationId",
              "patient"
            
         ],
         "properties":{  
            "token":{  
               "type":"string"
            },
              "userId":{  
               "type":"string"
            },
              "userLoginName":{  
               "type":"string"
            },
              "organizationId":{  
               "type":"string"
            },
              "siteId":{  
               "type":"string"
            },
              "locationId":{  
               "type":"string"
            },
              "patient":{
               "type":"object",
               "$ref":"#/definitions/updatePatient"
            }
         }
      },
      "updatePatient":{  
         "type":"object",
         "required":[  
             "patientId",
             "patientUHID",
             "title",
             "patientName",
             "lastName",
             "gender",
             "bloodGroup",
             "patientDOB",
             "mobileNo",
             "emailId",
             "addressLine1",
             "addressLine2",
             "country",
             "state",
             "city",
             "zipCode",
             "patientPhoto",
             "birthDayWish",
             "homeMonitoring",
             "medicalHistoryFlag",
             "medicalHistory" ,
             "patientAllergy",
              "alternate_number",
             "casualty",
             "religion",
             "employment",
             "mlc",
             "mlc_number",
             "mlc_description",
             "government_id_type",
             "government_id_number",
             "martial_status",
             "clinic_id",
             "countrycode_mobileNo",
             "countrycode_alternateNo"
            
         ],
         "properties":{  
             "patientId":{  
               "type":"string"
            },
             "patientUHID":{  
               "type":"string"
            },
             "title":{  
               "type":"string"
            },
             "patientName":{  
               "type":"string"
            },
             "lastName":{  
               "type":"string"
            },
             "gender":{  
               "type":"string"
            },
             "bloodGroup":{  
               "type":"string"
            },
             "patientDOB":{  
               "type":"string"
            },
             "mobileNo":{  
               "type":"string"
            },
             "emailId":{  
               "type":"string"
            },
             "addressLine1":{  
               "type":"string"
            },
             "addressLine2":{  
               "type":"string"
            },
             "country":{  
               "type":"string"
            },
             "state":{  
               "type":"string"
            },
             "city":{  
               "type":"string"
            },
             "zipCode":{  
               "type":"string"
            },
             "patientPhoto":{  
               "type":"string"
            },
             "birthDayWish":{  
               "type":"string"
            },
             "homeMonitoring":{  
               "type":"string"
            },
             "medicalHistoryFlag":{  
               "type":"string"
            },
             "medicalHistory" :{
               "type":"object",
               "$ref":"#/definitions/medicalHistory"
            },
             "patientAllergy":{
               "type":"object",
               "$ref":"#/definitions/patientAllergy"
            },
              "alternate_number":{  
               "type":"string"
            },
             "casualty":{  
               "type":"string"
            },
             "religion":{  
               "type":"string"
            },
             "employment":{  
               "type":"string"
            },
             "mlc":{  
               "type":"string"
            },
             "mlc_number":{  
               "type":"string"
            },
             "mlc_description":{  
               "type":"string"
            },
             "government_id_type":{  
               "type":"string"
            },
             "government_id_number":{  
               "type":"string"
            },
             "martial_status":{  
               "type":"string"
            },
             "clinic_id":{  
               "type":"string"
            },
             "countrycode_mobileNo":{  
               "type":"string"
            },
             "countrycode_alternateNo":{  
               "type":"string"
            }
         }
      },
      "patientSearchGetAllPatient":{  
         "type":"object",
         "required":[  
             "clinicUserId",
              "startIndex",
              "interval",
              "token",
              "userId",
              "hmFlag",
              "organisationId",
              "userLoginName"
            
         ],
         "properties":{  
            "clinicUserId":{  
               "type":"string"
            },
              "startIndex":{  
               "type":"string"
            },
              "interval":{  
               "type":"string"
            },
              "token":{  
               "type":"string"
            },
              "userId":{  
               "type":"string"
            },
              "hmFlag":{  
               "type":"string"
            },
              "organisationId":{  
               "type":"string"
            },
              "userLoginName":{  
               "type":"string"
            }
         }
      }






   }
}