{  
   "swagger":"2.0",
   "info":{  
      "description":"This is a sample for login into web services",
      "version":"1.0.0",
      "title":"Tata Digital Health Web services",
      "contact":{  
         "emailId":"rajshekar.sv@tata-dhp.com"
      }
   },
   "host":"test.tatahealth.com:8080",
   "tags":[  
      {  
         "name":"Login",
         "description":"Login related services",
         "externalDocs":{  
            "description":"Find out more",
            "url":"https://www.tatahealth.com/"
         }
      }
   ],
   "schemes":[  
      "http"
   ],
   "paths":{  
      "/HPPClinicsCARestApp/rest/clinicAdministration/appLogin":{  
         "post":{  
            "tags":[  
               "clinicAdministration"
            ],
            "summary":"To login using username and password",
            "description":"",
            "operationId":"Login",
            "consumes":[  
               "application/json"
            ],
            "produces":[  
               "*"
            ],
            "parameters":[  
               {  
                  "in":"body",
                  "name":"body",
                  "description":"Details required to get appointments",
                  "required":true,
                  "schema":{  
                     "$ref":"#/definitions/login"
                  }
               }
            ],
            "responses":{  
               "405":{  
                  "description":"Invalid input"
               },
               "500":{  
                  "description":"Internal Server Error"
               }
            }
         }
      },
      
      "/HPPClinicsCARestApp/rest/clinicAdministration/verifyUserLoginName":{  
         "post":{  
            "tags":[  
               "clinicAdministration"
            ],
            "summary":"To verify user login name",
            "description":"",
            "operationId":"verifyUserLoginName",
            "consumes":[  
               "application/json"
            ],
            "produces":[  
               "*"
            ],
            "parameters":[  
               {  
                  "in":"body",
                  "name":"body",
                  "description":"Details required to get appointments",
                  "required":true,
                  "schema":{  
                     "$ref":"#/definitions/verifyUserLoginName"
                  }
               }
            ],
            "responses":{  
               "405":{  
                  "description":"Invalid input"
               },
               "500":{  
                  "description":"Internal Server Error"
               }
            }
         }
      },

      "/HPPClinicsCARestApp/rest/clinicAdministration/userSignUpValidate":{  
         "post":{  
            "tags":[  
               "clinicAdministration"
            ],
            "summary":"To validate user signup",
            "description":"",
            "operationId":"userSignUpValidate",
            "consumes":[  
               "application/json"
            ],
            "produces":[  
               "*"
            ],
            "parameters":[  
               {  
                  "in":"body",
                  "name":"body",
                  "description":"Details required to get appointments",
                  "required":true,
                  "schema":{  
                     "$ref":"#/definitions/userSignUpValidate"
                  }
               }
            ],
            "responses":{  
               "405":{  
                  "description":"Invalid input"
               },
               "500":{  
                  "description":"Internal Server Error"
               }
            }
         }
      },

      "/HPPClinicsCARestApp/rest/clinicAdministration/otpVerification":{  
         "post":{  
            "tags":[  
               "clinicAdministration"
            ],
            "summary":"To verify otp",
            "description":"",
            "operationId":"otpVerification",
            "consumes":[  
               "application/json"
            ],
            "produces":[  
               "*"
            ],
            "parameters":[  
               {  
                  "in":"body",
                  "name":"body",
                  "description":"Details required to get appointments",
                  "required":true,
                  "schema":{  
                     "$ref":"#/definitions/otpVerification"
                  }
               }
            ],
            "responses":{  
               "405":{  
                  "description":"Invalid input"
               },
               "500":{  
                  "description":"Internal Server Error"
               }
            }
         }
      },

      "/HPPClinicsCARestApp/rest/clinicAdministration/resendSms":{  
         "post":{  
            "tags":[  
               "clinicAdministration"
            ],
            "summary":"To resend sms",
            "description":"",
            "operationId":"resendSms",
            "consumes":[  
               "application/json"
            ],
            "produces":[  
               "*"
            ],
            "parameters":[  
               {  
                  "in":"body",
                  "name":"body",
                  "description":"Details required to get appointments",
                  "required":true,
                  "schema":{  
                     "$ref":"#/definitions/resendSms"
                  }
               }
            ],
            "responses":{  
               "405":{  
                  "description":"Invalid input"
               },
               "500":{  
                  "description":"Internal Server Error"
               }
            }
         }
      },

       "/HPPClinicsCARestApp/rest/clinicAdministration/changePassword":{  
         "post":{  
            "tags":[  
               "clinicAdministration"
            ],
            "summary":"To change password",
            "description":"",
            "operationId":"changePassword",
            "consumes":[  
               "application/json"
            ],
            "produces":[  
               "*"
            ],
            "parameters":[  
               {  
                  "in":"body",
                  "name":"body",
                  "description":"Details required to get appointments",
                  "required":true,
                  "schema":{  
                     "$ref":"#/definitions/changePassword"
                  }
               }
            ],
            "responses":{  
               "405":{  
                  "description":"Invalid input"
               },
               "500":{  
                  "description":"Internal Server Error"
               }
            }
         }
      },

      "/HPPClinicsCARestApp/rest/clinicAdministration/forgotPassword":{  
         "post":{  
            "tags":[  
               "clinicAdministration"
            ],
            "summary":"Forgot password",
            "description":"",
            "operationId":"forgotPassword",
            "consumes":[  
               "application/json"
            ],
            "produces":[  
               "*"
            ],
            "parameters":[  
               {  
                  "in":"body",
                  "name":"body",
                  "description":"Details required to get appointments",
                  "required":true,
                  "schema":{  
                     "$ref":"#/definitions/forgotPassword"
                  }
               }
            ],
            "responses":{  
               "405":{  
                  "description":"Invalid input"
               },
               "500":{  
                  "description":"Internal Server Error"
               }
            }
         }
      },
      "/HPPClinicsCARestApp/rest/clinicAdministration/resetPassword":{  
         "post":{  
            "tags":[  
               "clinicAdministration"
            ],
            "summary":"To reset password",
            "description":"",
            "operationId":"resetPassword",
            "consumes":[  
               "application/json"
            ],
            "produces":[  
               "*"
            ],
            "parameters":[  
               {  
                  "in":"body",
                  "name":"body",
                  "description":"Details required to get appointments",
                  "required":true,
                  "schema":{  
                     "$ref":"#/definitions/resetPassword"
                  }
               }
            ],
            "responses":{  
               "405":{  
                  "description":"Invalid input"
               },
               "500":{  
                  "description":"Internal Server Error"
               }
            }
         }
      },
      "/HPPClinicsCARestApp/rest/clinicAdministration/createUserAuthentication":{  
         "post":{  
            "tags":[  
               "clinicAdministration"
            ],
            "summary":"To create user authentication",
            "description":"",
            "operationId":"createUserAuthentication",
            "consumes":[  
               "application/json"
            ],
            "produces":[  
               "*"
            ],
            "parameters":[  
               {  
                  "in":"body",
                  "name":"body",
                  "description":"Details required to get appointments",
                  "required":true,
                  "schema":{  
                     "$ref":"#/definitions/createUserAuthentication"
                  }
               }
            ],
            "responses":{  
               "405":{  
                  "description":"Invalid input"
               },
               "500":{  
                  "description":"Internal Server Error"
               }
            }
         }
      },
      "/HPPClinicsCARestApp/rest/clinicAdministration/getUserBasicDetails":{  
         "post":{  
            "tags":[  
               "clinicAdministration"
            ],
            "summary":"To get user basic details",
            "description":"",
            "operationId":"getUserBasicDetails",
            "consumes":[  
               "application/json"
            ],
            "produces":[  
               "*"
            ],
            "parameters":[  
               {  
                  "in":"body",
                  "name":"body",
                  "description":"Details required to get appointments",
                  "required":true,
                  "schema":{  
                     "$ref":"#/definitions/getUserBasicDetails"
                  }
               }
            ],
            "responses":{  
               "405":{  
                  "description":"Invalid input"
               },
               "500":{  
                  "description":"Internal Server Error"
               }
            }
         }
      },
      "/HPPClinicsCARestApp/rest/clinicAdministration/createUser":{  
         "post":{  
            "tags":[  
               "clinicAdministration"
            ],
            "summary":"To create user",
            "description":"",
            "operationId":"createUser",
            "consumes":[  
               "application/json"
            ],
            "produces":[  
               "*"
            ],
            "parameters":[  
               {  
                  "in":"body",
                  "name":"body",
                  "description":"Details required to get appointments",
                  "required":true,
                  "schema":{  
                     "$ref":"#/definitions/createUser"
                  }
               }
            ],
            "responses":{  
               "405":{  
                  "description":"Invalid input"
               },
               "500":{  
                  "description":"Internal Server Error"
               }
            }
         }
      },
      "/HPPClinicsCARestApp/rest/clinicAdministration/updateUser":{  
         "post":{  
            "tags":[  
               "clinicAdministration"
            ],
            "summary":"To update user",
            "description":"",
            "operationId":"updateUser",
            "consumes":[  
               "application/json"
            ],
            "produces":[  
               "*"
            ],
            "parameters":[  
               {  
                  "in":"body",
                  "name":"body",
                  "description":"Details required to get appointments",
                  "required":true,
                  "schema":{  
                     "$ref":"#/definitions/updateUser"
                  }
               }
            ],
            "responses":{  
               "405":{  
                  "description":"Invalid input"
               },
               "500":{  
                  "description":"Internal Server Error"
               }
            }
         }
      },

      "/HPPClinicsCARestApp/rest/clinicAdministration/logout":{  
         "post":{  
            "tags":[  
               "clinicAdministration"
            ],
            "summary":"Logout",
            "description":"",
            "operationId":"logout",
            "consumes":[  
               "application/json"
            ],
            "produces":[  
               "*"
            ],
            "parameters":[  
               {  
                  "in":"body",
                  "name":"body",
                  "description":"Details required to get appointments",
                  "required":true,
                  "schema":{  
                     "$ref":"#/definitions/logout"
                  }
               }
            ],
            "responses":{  
               "405":{  
                  "description":"Invalid input"
               },
               "500":{  
                  "description":"Internal Server Error"
               }
            }
         }
      },

      "/HPPClinicsCARestApp/rest/clinicAdministration/autoSuggestionUsers":{  
         "post":{  
            "tags":[  
               "clinicAdministration"
            ],
            "summary":"Auto Suggestion Users",
            "description":"",
            "operationId":"autoSuggestionUsers",
            "consumes":[  
               "application/json"
            ],
            "produces":[  
               "*"
            ],
            "parameters":[  
               {  
                  "in":"body",
                  "name":"body",
                  "description":"Details required to get appointments",
                  "required":true,
                  "schema":{  
                     "$ref":"#/definitions/autoSuggestionUsers"
                  }
               }
            ],
            "responses":{  
               "405":{  
                  "description":"Invalid input"
               },
               "500":{  
                  "description":"Internal Server Error"
               }
            }
         }
      },

      "/HPPClinicsCARestApp/rest/clinicAdministration/retrieveUsers":{  
         "post":{  
            "tags":[  
               "clinicAdministration"
            ],
            "summary":"retrieve Users",
            "description":"",
            "operationId":"retrieveUsers",
            "consumes":[  
               "application/json"
            ],
            "produces":[  
               "*"
            ],
            "parameters":[  
               {  
                  "in":"body",
                  "name":"body",
                  "description":"Details required to get appointments",
                  "required":true,
                  "schema":{  
                     "$ref":"#/definitions/retrieveUsers"
                  }
               }
            ],
            "responses":{  
               "405":{  
                  "description":"Invalid input"
               },
               "500":{  
                  "description":"Internal Server Error"
               }
            }
         }
      },
      "/HPPClinicsCARestApp/rest/clinicAdministration/userStatusUpdate":{  
         "post":{  
            "tags":[  
               "clinicAdministration"
            ],
            "summary":"Users status update",
            "description":"",
            "operationId":"userStatusUpdate",
            "consumes":[  
               "application/json"
            ],
            "produces":[  
               "*"
            ],
            "parameters":[  
               {  
                  "in":"body",
                  "name":"body",
                  "description":"Details required to get appointments",
                  "required":true,
                  "schema":{  
                     "$ref":"#/definitions/userStatusUpdate"
                  }
               }
            ],
            "responses":{  
               "405":{  
                  "description":"Invalid input"
               },
               "500":{  
                  "description":"Internal Server Error"
               }
            }
         }
      },

      "/HPPClinicsCARestApp/rest/clinicAdministration/getUserDetails":{  
         "post":{  
            "tags":[  
               "clinicAdministration"
            ],
            "summary":"To Get User Details",
            "description":"",
            "operationId":"getUserDetails",
            "consumes":[  
               "application/json"
            ],
            "produces":[  
               "*"
            ],
            "parameters":[  
               {  
                  "in":"body",
                  "name":"body",
                  "description":"Details required to get appointments",
                  "required":true,
                  "schema":{  
                     "$ref":"#/definitions/getUserDetails"
                  }
               }
            ],
            "responses":{  
               "405":{  
                  "description":"Invalid input"
               },
               "500":{  
                  "description":"Internal Server Error"
               }
            }
         }
      },

      "/HPPClinicsCARestApp/rest/clinicAdministration/userMaster":{  
         "post":{  
            "tags":[  
               "clinicAdministration"
            ],
            "summary":"User Master",
            "description":"",
            "operationId":"userMaster",
            "consumes":[  
               "application/json"
            ],
            "produces":[  
               "*"
            ],
            "parameters":[  
               {  
                  "in":"body",
                  "name":"body",
                  "description":"Details required to get appointments",
                  "required":true,
                  "schema":{  
                     "$ref":"#/definitions/userMaster"
                  }
               }
            ],
            "responses":{  
               "405":{  
                  "description":"Invalid input"
               },
               "500":{  
                  "description":"Internal Server Error"
               }
            }
         }
      },

      "/HPPClinicsCARestApp/rest/clinicAdministration/userAssocToClinic":{  
         "post":{  
            "tags":[  
               "clinicAdministration"
            ],
            "summary":"User Assoc to clinic",
            "description":"",
            "operationId":"userAssocToClinic",
            "consumes":[  
               "application/json"
            ],
            "produces":[  
               "*"
            ],
            "parameters":[  
               {  
                  "in":"body",
                  "name":"body",
                  "description":"Details required to get appointments",
                  "required":true,
                  "schema":{  
                     "$ref":"#/definitions/userAssocToClinic"
                  }
               }
            ],
            "responses":{  
               "405":{  
                  "description":"Invalid input"
               },
               "500":{  
                  "description":"Internal Server Error"
               }
            }
         }
      },

      "/HPPClinicsCARestApp/rest/clinicAdministration/getUserConsultationTabDetails":{  
         "post":{  
            "tags":[  
               "clinicAdministration"
            ],
            "summary":"To get user consulatation tab details",
            "description":"",
            "operationId":"getUserConsultationTabDetails",
            "consumes":[  
               "application/json"
            ],
            "produces":[  
               "*"
            ],
            "parameters":[  
               {  
                  "in":"body",
                  "name":"body",
                  "description":"Details required to get appointments",
                  "required":true,
                  "schema":{  
                     "$ref":"#/definitions/getUserConsultationTabDetails"
                  }
               }
            ],
            "responses":{  
               "405":{  
                  "description":"Invalid input"
               },
               "500":{  
                  "description":"Internal Server Error"
               }
            }
         }
      },

      "/HPPClinicsCARestApp/rest/clinicAdministration/updateUserConsultationTabDetails":{  
         "post":{  
            "tags":[  
               "clinicAdministration"
            ],
            "summary":"To update user consulatation tab details",
            "description":"",
            "operationId":"updateUserConsultationTabDetails",
            "consumes":[  
               "application/json"
            ],
            "produces":[  
               "*"
            ],
            "parameters":[  
               {  
                  "in":"body",
                  "name":"body",
                  "description":"Details required to get appointments",
                  "required":true,
                  "schema":{  
                     "$ref":"#/definitions/updateUserConsultationTabDetails"
                  }
               }
            ],
            "responses":{  
               "405":{  
                  "description":"Invalid input"
               },
               "500":{  
                  "description":"Internal Server Error"
               }
            }
         }
      },

      "/HPPClinicsCARestApp/rest/clinicAdministration/acceptTermCondition":{  
         "post":{  
            "tags":[  
               "clinicAdministration"
            ],
            "summary":"To accept terms and conditions",
            "description":"",
            "operationId":"acceptTermCondition",
            "consumes":[  
               "application/json"
            ],
            "produces":[  
               "*"
            ],
            "parameters":[  
               {  
                  "in":"body",
                  "name":"body",
                  "description":"Details required to get appointments",
                  "required":true,
                  "schema":{  
                     "$ref":"#/definitions/acceptTermCondition"
                  }
               }
            ],
            "responses":{  
               "405":{  
                  "description":"Invalid input"
               },
               "500":{  
                  "description":"Internal Server Error"
               }
            }
         }
      }


   },
   "definitions":{  
      "login":{  
         "type":"object",
         "required":[  
            "userLoginName",
            "password"
         ],
         "properties":{  
            "userLoginName":{  
               "type":"string"
            },
            "password":{  
               "type":"string",
               "format":"password"
            }
         }
      },

      "verifyUserLoginName":{  
         "type":"object",
         "required":[  
            "userLoginName"
         ],
         "properties":{  
            "userLoginName":{  
               "type":"string"
            }
         }
      },

       "userSignUpValidate":{  
         "type":"object",
         "required":[  
            "clinicUserId" ,
            "organisationId"
         ],
         "properties":{  
            "clinicUserId":{  
               "type":"string"
            },	
            "organisationId":{  
               "type":"string"
            }
         }
      },

      "otpVerification":{  
         "type":"object",
         "required":[  
           "otpCode" ,
            "clinicUserId",
            "organisationId"
         ],
         "properties":{  
            "otpCode":{  
               "type":"string"
            },
            "clinicUserId":{  
               "type":"string"
            },
             "organisationId":{  
               "type":"string"
            }
         }
      },

      "resendSms":{  
         "type":"object",
         "required":[  
            "mobileNumber" ,
            "clinicUserId",
            "organisationId"
         ],
         "properties":{  
             "mobileNumber":{  
               "type":"string"
            },
            "clinicUserId":{  
               "type":"string"
            },
             "organisationId":{  
               "type":"string"
            }
         }
      },

      "changePassword":{  
         "type":"object",
         "required":[  
            "userLoginName",
            "password",
            "oldPassword",
            "token"
         ],
         "properties":{  
            "userLoginName":{  
               "type":"string"
            },
            "password":{  
               "type":"string",
               "format":"password"
            },
            "oldPassword":{  
               "type":"string",
               "format":"password"
            },
            "token":{  
               "type":"string"
            }
         }
      },

       "forgotPassword":{  
         "type":"object",
         "required":[  
            "userLoginName"
         ],
         "properties":{  
            "userLoginName":{  
               "type":"string"
            }
         }
      },

      "resetPassword":{  
         "type":"object",
         "required":[  
            "userLoginName",
            "password"
         ],
         "properties":{  
            "userLoginName":{  
               "type":"string"
            },
             "password":{  
               "type":"string",
               "format":"password"
            }
         }
      },

       "createUserAuthentication":{  
         "type":"object",
         "required":[  
            "userLoginName",
            "password",
            "clinicUserId" ,
            "organisationId "
         ],
         "properties":{  
            "userLoginName":{  
               "type":"string"
            },
             "password":{  
               "type":"string",
               "format":"password"
            },
            "clinicUserId":{  
               "type":"string"
            },
             "organisationId":{  
               "type":"string"
            }
         }
      },

       "getUserBasicDetails":{  
         "type":"object",
         "required":[
            "token",  
            "userLoginName",
            "clinicUserId" ,
            "organisationId "
         ],
         "properties":{  
            "userLoginName":{  
               "type":"string"
            },
             "token":{  
               "type":"string"
            },
            "clinicUserId":{  
               "type":"string"
            },
             "organisationId":{  
               "type":"string"
            }
         }
      },

      "createUser":{  
         "type":"object",
         "required":[
            "token",
            "userLoginName",
             "adminUserId",
             "siteId",
             "user",
             "roleId",  
             "locationId",
            "isDuplicateCheckRequired",
            "isUserMappingRequired"
         ],
         
         "properties":{  
            "token":{  
               "type":"string"
            },
            "userLoginName":{  
               "type":"string"
            },
            "adminUserId":{  
               "type":"string"
            },
            "siteId":{  
               "type":"string"
            },
            "user":{  
               "type":"object",
               "$ref":"#/definitions/User"
            },
             "roleId":{  
               "type":"string"
            },
            "locationId":{  
               "type":"string"
            },
            "isDuplicateCheckRequired":{  
               "type":"string"
            },
            "isUserMappingRequired":{  
               "type":"string"
            }
         }
      },

      "User":{  
         "type":"object",
         "required":[
            "userId",
             "userName",
             "title",
             "gender",
             "bloodGroup",
             "dob",
             "mobileNumber",
             "speciality",
             "email",
             "address",
             "medicalRegNo",
             "signature",
             "userPhoto",
             "roleType",
             "isActive",
             "organisationId",
             "organisationName",
             "isVirtualClinic"
         ],
         "properties":{  
            "userId":{  
               "type":"string"
            },
             "userName":{  
               "type":"string"
            },
            "title":{  
               "type":"string"
            },
             "gender":{  
               "type":"string"
            },
            "bloodGroup":{  
               "type":"string"
            },
             "dob":{  
               "type":"string"
            },
            "mobileNumber":{  
               "type":"string"
            },
             "speciality":{  
               "type":"string"
            },
            "email":{  
               "type":"string"
            },
             "address":{  
               "type":"string"
            },
            "medicalRegNo":{  
               "type":"string"
            },
             "signature":{  
               "type":"string"
            },
            "userPhoto":{  
               "type":"string"
            },
             "isActive":{  
               "type":"string"
            },
            "roleType":{  
               "type":"string"
            },
             "organisationId":{  
               "type":"string"
            },
            "organisationName":{  
               "type":"string"
            },
             "isVirtualClinic":{  
               "type":"string"
            }
         }
      },

       "updateUser":{  
         "type":"object",
         "required":[
              "token",
              "adminUserLoginName",
              "adminUserId",
              "siteId",
              "locationId",
              "clinicUserId",
              "organisationId",
              "userName",
              "roleType",
              "roleId"
         ],
         
         "properties":{  
            "token":{  
               "type":"string"
            },
            "adminUserLoginName":{  
               "type":"string"
            },
            "adminUserId":{  
               "type":"string"
            },
            "siteId":{  
               "type":"string"
            },
            "locationId":{  
               "type":"string"
            },
             "clinicUserId":{  
               "type":"string"
            },
            "organisationId":{  
               "type":"string"
            },
            "userName":{  
               "type":"string"
            },
            "roleType":{  
               "type":"string"
            },
            "roleId":{  
               "type":"string"
            }
         }
      },

      "logout":{  
         "type":"object",
         "required":[  
            "userLoginName",
            "token"
         ],
         "properties":{  
            "userLoginName":{  
               "type":"string"
            },
            "token":{  
               "type":"string"
            }
         }
      },

      "autoSuggestionUsers":{  
         "type":"object",
         "required":[  
           "searchText",
           "token",
           "userLoginName",
           "organisationId"
         ],
         "properties":{  
            "searchText":{  
               "type":"string"
            },
            "token":{  
               "type":"string"
            },
             "userLoginName":{  
               "type":"string"
            },
            "organisationId":{  
               "type":"string"
            }
         }
      },

      "retrieveUsers":{  
         "type":"object",
         "required":[  
            "userLoginName",
              "token",
              "searchText",
              "startRow",
              "interval",
              "organisationId"
         ],
         "properties":{  
            "userLoginName":{  
               "type":"string"
            },
            "token":{  
               "type":"string"
            },
             "searchText":{  
               "type":"string"
            },
            "startRow":{  
               "type":"string"
            },
            "interval":{  
               "type":"string"
            },
            "organisationId":{  
               "type":"string"
            }
         }
      },

      "userStatusUpdate":{  
         "type":"object",
         "required":[  
            "token",
              "adminUserLoginName",
              "adminUserId",
              "userId",
              "isActive",
              "roleType",
              "organisationId"
         ],
         "properties":{  
            "token":{  
               "type":"string"
            },
            "adminUserLoginName":{  
               "type":"string"
            },
             "adminUserId":{  
               "type":"string"
            },
            "userId":{  
               "type":"string"
            },
            "isActive":{  
               "type":"string"
            },
            "roleType":{  
               "type":"string"
            },
            "organisationId":{  
               "type":"string"
            }
         }
      },

       "getUserDetails":{  
         "type":"object",
         "required":[  
            "token",
           "adminUserLoginName",
           "clinicUserId",
           "organisationId"
         ],
         "properties":{  
            "token":{  
               "type":"string"
            },
            "adminUserLoginName":{  
               "type":"string"
            },
             "clinicUserId":{  
               "type":"string"
            },
            "organisationId":{  
               "type":"string"
            }
         }
      },

      "userMaster":{  
         "type":"object",
         "required":[  
             "token",
              "userLoginName",
              "organisationId"
         ],
         "properties":{  
            "token":{  
               "type":"string"
            },
            "userLoginName":{  
               "type":"string"
            },
             "organisationId":{  
               "type":"string"
            }
         }
      },

      "userAssocToClinic":{  
         "type":"object",
         "required":[  
             "token",
              "userLoginName",
              "clinicUserId",
              "organisationId"
         ],
         "properties":{  
            "token":{  
               "type":"string"
            },
            "userLoginName":{  
               "type":"string"
            },
            "clinicUserId":{  
               "type":"string"
            },
             "organisationId":{  
               "type":"string"
            }
         }
      },

      "getUserConsultationTabDetails":{  
         "type":"object",
         "required":[  
             "token",
              "adminUserLoginName",
              "clinicUserId",
              "organisationId"
         ],
         "properties":{  
            "token":{  
               "type":"string"
            },
            "adminUserLoginName":{  
               "type":"string"
            },
            "clinicUserId":{  
               "type":"string"
            },
             "organisationId":{  
               "type":"string"
            }
         }
      },

      "updateUserConsultationTabDetails":{  
         "type":"object",
         "required":[  
             "token",
              "adminUserLoginName",
              "clinicUserId",
              "organisationId",
              "consultationTabDetails"
         ],
         "properties":{  
            "token":{  
               "type":"string"
            },
            "adminUserLoginName":{  
               "type":"string"
            },
            "clinicUserId":{  
               "type":"string"
            },
             "organisationId":{  
               "type":"string"
            },
             "consultationTabDetails":{  
               "type":"string"
            }
         }
      },

      "acceptTermCondition":{  
         "type":"object",
         "required":[  
             "token",
              "clinicUserId",
              "acceptTermAndCondition",
              "userLoginName"
         ],
         "properties":{  
            "token":{  
               "type":"string"
            },
            "clinicUserId":{  
               "type":"string"
            },
            "acceptTermAndCondition":{  
               "type":"string"
            },
             "userLoginName":{  
               "type":"string"
            }
         }
      }

      

      }
   
}